\relax 
\catcode `"\active 
\catcode `-\active 
\select@language{czech}
\@writefile{toc}{\select@language{czech}}
\@writefile{lof}{\select@language{czech}}
\@writefile{lot}{\select@language{czech}}
\@writefile{toc}{\contentsline {section}{\numberline {1}\IeC {\'U}vod}{1}}
\@writefile{toc}{\contentsline {paragraph}{}{1}}
\@writefile{toc}{\contentsline {section}{\numberline {2}Othello}{1}}
\@writefile{toc}{\contentsline {paragraph}{}{1}}
\@writefile{lof}{\contentsline {figure}{\numberline {1}{\ignorespaces Po\IeC {\v c}\IeC {\'a}te\IeC {\v c}n\IeC {\'\i } pozice}}{1}}
\newlabel{fig1}{{1}{1}}
\@writefile{lof}{\contentsline {figure}{\numberline {2}{\ignorespaces Ilustra\IeC {\v c}n\IeC {\'\i } situace}}{2}}
\newlabel{fig2}{{2}{2}}
\@writefile{lof}{\contentsline {figure}{\numberline {3}{\ignorespaces Ilustra\IeC {\v c}n\IeC {\'\i } situace n\IeC {\'a}sleduj\IeC {\'\i }c\IeC {\'\i } po situaci na Obr\IeC {\'a}zku \ref  {fig2}}}{2}}
\newlabel{fig3}{{3}{2}}
\@writefile{toc}{\contentsline {section}{\numberline {3}Z\IeC {\'a}kladn\IeC {\'\i } princip programu}{2}}
\@writefile{toc}{\contentsline {paragraph}{}{2}}
\citation{bib5}
\@writefile{toc}{\contentsline {paragraph}{}{3}}
\@writefile{toc}{\contentsline {section}{\numberline {4}Ohodnocovac\IeC {\'\i } funkce}{3}}
\@writefile{toc}{\contentsline {subsection}{\numberline {4.1}Po\IeC {\v c}et kamen\IeC {\r u}}{3}}
\@writefile{toc}{\contentsline {paragraph}{}{3}}
\@writefile{toc}{\contentsline {subsection}{\numberline {4.2}Obsazen\IeC {\'e} rohy}{3}}
\@writefile{toc}{\contentsline {paragraph}{}{3}}
\@writefile{toc}{\contentsline {subsection}{\numberline {4.3}V\IeC {\'y}hodnost pol\IeC {\'\i }\IeC {\v c}ek}{3}}
\@writefile{toc}{\contentsline {paragraph}{}{3}}
\@writefile{toc}{\contentsline {subsection}{\numberline {4.4}Mobilita}{3}}
\@writefile{toc}{\contentsline {paragraph}{}{3}}
\@writefile{toc}{\contentsline {subsection}{\numberline {4.5}Kameny v ohro\IeC {\v z}en\IeC {\'\i }}{3}}
\@writefile{toc}{\contentsline {paragraph}{}{3}}
\citation{bib1}
\citation{bib1}
\citation{bib1}
\citation{bib2}
\@writefile{lof}{\contentsline {figure}{\numberline {4}{\ignorespaces Tabulka hodnot pol\IeC {\'\i }\IeC {\v c}ek}}{4}}
\newlabel{fig4}{{4}{4}}
\@writefile{lot}{\contentsline {table}{\numberline {1}{\ignorespaces Porovn\IeC {\'a}n\IeC {\'\i } ohodnocovac\IeC {\'\i }ch funkc\IeC {\'\i }}}{4}}
\newlabel{fig5}{{1}{4}}
\@writefile{toc}{\contentsline {subsection}{\numberline {4.6}Kombinace}{4}}
\@writefile{toc}{\contentsline {paragraph}{}{4}}
\@writefile{toc}{\contentsline {subsection}{\numberline {4.7}Porovn\IeC {\'a}n\IeC {\'\i }}{4}}
\@writefile{toc}{\contentsline {paragraph}{}{4}}
\@writefile{toc}{\contentsline {subsection}{\numberline {4.8}Shrnut\IeC {\'\i }}{5}}
\@writefile{toc}{\contentsline {paragraph}{}{5}}
\@writefile{toc}{\contentsline {section}{\numberline {5}Hledac\IeC {\'\i } funkce}{5}}
\@writefile{toc}{\contentsline {subsection}{\numberline {5.1}N\IeC {\'a}hodn\IeC {\'y} v\IeC {\'y}b\IeC {\v e}r}{5}}
\@writefile{toc}{\contentsline {paragraph}{}{5}}
\@writefile{toc}{\contentsline {subsection}{\numberline {5.2}Negamax}{5}}
\@writefile{toc}{\contentsline {paragraph}{}{5}}
\@writefile{toc}{\contentsline {paragraph}{}{5}}
\@writefile{toc}{\contentsline {paragraph}{}{5}}
\citation{bib6}
\@writefile{lot}{\contentsline {table}{\numberline {2}{\ignorespaces Doba pot\IeC {\v r}ebn\IeC {\'a} k odehr\IeC {\'a}n\IeC {\'\i } 50 her}}{6}}
\newlabel{fig7}{{2}{6}}
\@writefile{toc}{\contentsline {subsection}{\numberline {5.3}Alfa-beta o\IeC {\v r}ez\IeC {\'a}v\IeC {\'a}n\IeC {\'\i }}{6}}
\@writefile{toc}{\contentsline {paragraph}{}{6}}
\@writefile{toc}{\contentsline {paragraph}{}{6}}
\@writefile{toc}{\contentsline {paragraph}{}{6}}
\@writefile{toc}{\contentsline {subsection}{\numberline {5.4}Uspo\IeC {\v r}\IeC {\'a}dan\IeC {\'e} alfa-beta o\IeC {\v r}ez\IeC {\'a}v\IeC {\'a}n\IeC {\'\i }}{6}}
\@writefile{toc}{\contentsline {paragraph}{}{6}}
\@writefile{lot}{\contentsline {table}{\numberline {3}{\ignorespaces Doba pot\IeC {\v r}ebn\IeC {\'a} k odehr\IeC {\'a}n\IeC {\'\i } 50 her}}{7}}
\newlabel{fig8}{{3}{7}}
\@writefile{lot}{\contentsline {table}{\numberline {4}{\ignorespaces Porovn\IeC {\'a}n\IeC {\'\i } algoritmu s dokon\IeC {\v c}ov\IeC {\'a}n\IeC {\'\i }m a bez n\IeC {\v e}j}}{7}}
\newlabel{fig9}{{4}{7}}
\@writefile{toc}{\contentsline {paragraph}{}{7}}
\@writefile{toc}{\contentsline {paragraph}{}{7}}
\@writefile{toc}{\contentsline {subsection}{\numberline {5.5}Dokon\IeC {\v c}en\IeC {\'\i } hry}{7}}
\@writefile{toc}{\contentsline {paragraph}{}{7}}
\@writefile{toc}{\contentsline {paragraph}{}{7}}
\citation{bib7}
\@writefile{lot}{\contentsline {table}{\numberline {5}{\ignorespaces Porovn\IeC {\'a}n\IeC {\'\i } algoritmu s omezn\IeC {\'y}m po\IeC {\v c}tem tah\IeC {\r u} a bez n\IeC {\v e}j}}{8}}
\newlabel{fig10}{{5}{8}}
\@writefile{toc}{\contentsline {subsection}{\numberline {5.6}Omezen\IeC {\'y} po\IeC {\v c}et tah\IeC {\r u}}{8}}
\@writefile{toc}{\contentsline {subsubsection}{\numberline {5.6.1}Oby\IeC {\v c}ejn\IeC {\'y}}{8}}
\@writefile{toc}{\contentsline {paragraph}{}{8}}
\@writefile{toc}{\contentsline {paragraph}{}{8}}
\@writefile{toc}{\contentsline {paragraph}{}{8}}
\@writefile{toc}{\contentsline {paragraph}{}{8}}
\@writefile{lot}{\contentsline {table}{\numberline {6}{\ignorespaces Porovn\IeC {\'a}n\IeC {\'\i } rychlosti r\IeC {\r u}zn\IeC {\'y}ch algoritm\IeC {\r u} na odeh\IeC {\'a}rn\IeC {\'\i } 50 her}}{9}}
\newlabel{fig11}{{6}{9}}
\@writefile{toc}{\contentsline {subsubsection}{\numberline {5.6.2}Pravd\IeC {\v e}podobnostn\IeC {\'\i }}{9}}
\@writefile{toc}{\contentsline {paragraph}{}{9}}
\@writefile{toc}{\contentsline {paragraph}{}{9}}
\@writefile{toc}{\contentsline {subsection}{\numberline {5.7}Prodlou\IeC {\v z}en\IeC {\'\i }}{9}}
\@writefile{toc}{\contentsline {paragraph}{}{9}}
\citation{bib1}
\@writefile{toc}{\contentsline {paragraph}{}{10}}
\@writefile{toc}{\contentsline {subsection}{\numberline {5.8}Shrnut\IeC {\'\i }}{10}}
\@writefile{toc}{\contentsline {paragraph}{}{10}}
\@writefile{toc}{\contentsline {section}{\numberline {6}Manipulace s deskou a tahy}{10}}
\@writefile{toc}{\contentsline {paragraph}{}{10}}
\@writefile{toc}{\contentsline {paragraph}{}{10}}
\@writefile{toc}{\contentsline {paragraph}{}{10}}
\bibcite{bib1}{1}
\bibcite{bib2}{2}
\bibcite{bib3}{3}
\bibcite{bib4}{4}
\bibcite{bib5}{5}
\@writefile{toc}{\contentsline {section}{\numberline {7}\IeC {\v C}len\IeC {\v e}n\IeC {\'\i } programu}{11}}
\@writefile{toc}{\contentsline {paragraph}{}{11}}
\@writefile{toc}{\contentsline {section}{\numberline {8}U\IeC {\v z}ivatelsk\IeC {\'a} \IeC {\v c}\IeC {\'a}st}{11}}
\@writefile{toc}{\contentsline {paragraph}{}{11}}
\@writefile{toc}{\contentsline {section}{\numberline {9}Z\IeC {\'a}v\IeC {\v e}r}{11}}
\@writefile{toc}{\contentsline {paragraph}{}{11}}
\bibcite{bib6}{6}
\bibcite{bib7}{7}
